%YAML 1.1
%TAG !u! tag:unity3d.com,2011:
--- !u!181963792 &2655988077585873504
Preset:
  m_ObjectHideFlags: 0
  m_CorrespondingSourceObject: {fileID: 0}
  m_PrefabInstance: {fileID: 0}
  m_PrefabAsset: {fileID: 0}
  m_Name: PlayerSettings
  m_TargetType:
    m_NativeTypeID: 129
    m_ManagedTypePPtr: {fileID: 0}
    m_ManagedTypeFallback: 
  m_Properties:
  - target: {fileID: 0}
    propertyPath: productGUID.data[0]
    value: 1044872964
    objectReference: {fileID: 0}
  - target: {fileID: 0}
    propertyPath: productGUID.data[1]
    value: 2185233997
    objectReference: {fileID: 0}
  - target: {fileID: 0}
    propertyPath: productGUID.data[2]
    value: 91905977
    objectReference: {fileID: 0}
  - target: {fileID: 0}
    propertyPath: productGUID.data[3]
    value: 1009516485
    objectReference: {fileID: 0}
  - target: {fileID: 0}
    propertyPath: AndroidProfiler
    value: 0
    objectReference: {fileID: 0}
  - target: {fileID: 0}
    propertyPath: AndroidFilterTouchesWhenObscured
    value: 0
    objectReference: {fileID: 0}
  - target: {fileID: 0}
    propertyPath: AndroidEnableSustainedPerformanceMode
    value: 0
    objectReference: {fileID: 0}
  - target: {fileID: 0}
    propertyPath: defaultScreenOrientation
    value: 4
    objectReference: {fileID: 0}
  - target: {fileID: 0}
    propertyPath: targetDevice
    value: 2
    objectReference: {fileID: 0}
  - target: {fileID: 0}
    propertyPath: useOnDemandResources
    value: 0
    objectReference: {fileID: 0}
  - target: {fileID: 0}
    propertyPath: accelerometerFrequency
    value: 60
    objectReference: {fileID: 0}
  - target: {fileID: 0}
    propertyPath: companyName
    value: DefaultCompany
    objectReference: {fileID: 0}
  - target: {fileID: 0}
    propertyPath: productName
    value: Uni-Run
    objectReference: {fileID: 0}
  - target: {fileID: 0}
    propertyPath: defaultCursor
    value: 
    objectReference: {fileID: 0}
  - target: {fileID: 0}
    propertyPath: cursorHotspot.x
    value: 0
    objectReference: {fileID: 0}
  - target: {fileID: 0}
    propertyPath: cursorHotspot.y
    value: 0
    objectReference: {fileID: 0}
  - target: {fileID: 0}
    propertyPath: m_SplashScreenBackgroundColor.r
    value: 0.13725491
    objectReference: {fileID: 0}
  - target: {fileID: 0}
    propertyPath: m_SplashScreenBackgroundColor.g
    value: 0.12156863
    objectReference: {fileID: 0}
  - target: {fileID: 0}
    propertyPath: m_SplashScreenBackgroundColor.b
    value: 0.1254902
    objectReference: {fileID: 0}
  - target: {fileID: 0}
    propertyPath: m_SplashScreenBackgroundColor.a
    value: 1
    objectReference: {fileID: 0}
  - target: {fileID: 0}
    propertyPath: m_ShowUnitySplashScreen
    value: 1
    objectReference: {fileID: 0}
  - target: {fileID: 0}
    propertyPath: m_ShowUnitySplashLogo
    value: 1
    objectReference: {fileID: 0}
  - target: {fileID: 0}
    propertyPath: m_SplashScreenOverlayOpacity
    value: 1
    objectReference: {fileID: 0}
  - target: {fileID: 0}
    propertyPath: m_SplashScreenAnimation
    value: 1
    objectReference: {fileID: 0}
  - target: {fileID: 0}
    propertyPath: m_SplashScreenLogoStyle
    value: 1
    objectReference: {fileID: 0}
  - target: {fileID: 0}
    propertyPath: m_SplashScreenDrawMode
    value: 0
    objectReference: {fileID: 0}
  - target: {fileID: 0}
    propertyPath: m_SplashScreenBackgroundAnimationZoom
    value: 1
    objectReference: {fileID: 0}
  - target: {fileID: 0}
    propertyPath: m_SplashScreenLogoAnimationZoom
    value: 1
    objectReference: {fileID: 0}
  - target: {fileID: 0}
    propertyPath: m_SplashScreenBackgroundLandscapeAspect
    value: 1
    objectReference: {fileID: 0}
  - target: {fileID: 0}
    propertyPath: m_SplashScreenBackgroundPortraitAspect
    value: 1
    objectReference: {fileID: 0}
  - target: {fileID: 0}
    propertyPath: m_SplashScreenBackgroundLandscapeUvs.x
    value: 0
    objectReference: {fileID: 0}
  - target: {fileID: 0}
    propertyPath: m_SplashScreenBackgroundLandscapeUvs.y
    value: 0
    objectReference: {fileID: 0}
  - target: {fileID: 0}
    propertyPath: m_SplashScreenBackgroundLandscapeUvs.width
    value: 1
    objectReference: {fileID: 0}
  - target: {fileID: 0}
    propertyPath: m_SplashScreenBackgroundLandscapeUvs.height
    value: 1
    objectReference: {fileID: 0}
  - target: {fileID: 0}
    propertyPath: m_SplashScreenBackgroundPortraitUvs.x
    value: 0
    objectReference: {fileID: 0}
  - target: {fileID: 0}
    propertyPath: m_SplashScreenBackgroundPortraitUvs.y
    value: 0
    objectReference: {fileID: 0}
  - target: {fileID: 0}
    propertyPath: m_SplashScreenBackgroundPortraitUvs.width
    value: 1
    objectReference: {fileID: 0}
  - target: {fileID: 0}
    propertyPath: m_SplashScreenBackgroundPortraitUvs.height
    value: 1
    objectReference: {fileID: 0}
  - target: {fileID: 0}
    propertyPath: m_SplashScreenLogos.Array.size
    value: 0
    objectReference: {fileID: 0}
  - target: {fileID: 0}
    propertyPath: m_VirtualRealitySplashScreen
    value: 
    objectReference: {fileID: 0}
  - target: {fileID: 0}
    propertyPath: m_HolographicTrackingLossScreen
    value: 
    objectReference: {fileID: 0}
  - target: {fileID: 0}
    propertyPath: defaultScreenWidth
    value: 1024
    objectReference: {fileID: 0}
  - target: {fileID: 0}
    propertyPath: defaultScreenHeight
    value: 768
    objectReference: {fileID: 0}
  - target: {fileID: 0}
    propertyPath: defaultScreenWidthWeb
    value: 960
    objectReference: {fileID: 0}
  - target: {fileID: 0}
    propertyPath: defaultScreenHeightWeb
    value: 600
    objectReference: {fileID: 0}
  - target: {fileID: 0}
    propertyPath: m_StereoRenderingPath
    value: 0
    objectReference: {fileID: 0}
  - target: {fileID: 0}
    propertyPath: m_ActiveColorSpace
    value: 0
    objectReference: {fileID: 0}
  - target: {fileID: 0}
    propertyPath: m_MTRendering
    value: 1
    objectReference: {fileID: 0}
  - target: {fileID: 0}
    propertyPath: mipStripping
    value: 0
    objectReference: {fileID: 0}
  - target: {fileID: 0}
    propertyPath: numberOfMipsStripped
    value: 0
    objectReference: {fileID: 0}
  - target: {fileID: 0}
    propertyPath: m_StackTraceTypes.Array.size
    value: 6
    objectReference: {fileID: 0}
  - target: {fileID: 0}
    propertyPath: m_StackTraceTypes.Array.data[0]
    value: 1
    objectReference: {fileID: 0}
  - target: {fileID: 0}
    propertyPath: m_StackTraceTypes.Array.data[1]
    value: 1
    objectReference: {fileID: 0}
  - target: {fileID: 0}
    propertyPath: m_StackTraceTypes.Array.data[2]
    value: 1
    objectReference: {fileID: 0}
  - target: {fileID: 0}
    propertyPath: m_StackTraceTypes.Array.data[3]
    value: 1
    objectReference: {fileID: 0}
  - target: {fileID: 0}
    propertyPath: m_StackTraceTypes.Array.data[4]
    value: 1
    objectReference: {fileID: 0}
  - target: {fileID: 0}
    propertyPath: m_StackTraceTypes.Array.data[5]
    value: 1
    objectReference: {fileID: 0}
  - target: {fileID: 0}
    propertyPath: iosShowActivityIndicatorOnLoading
    value: -1
    objectReference: {fileID: 0}
  - target: {fileID: 0}
    propertyPath: androidShowActivityIndicatorOnLoading
    value: -1
    objectReference: {fileID: 0}
  - target: {fileID: 0}
    propertyPath: iosUseCustomAppBackgroundBehavior
    value: 0
    objectReference: {fileID: 0}
  - target: {fileID: 0}
    propertyPath: iosAllowHTTPDownload
    value: 1
    objectReference: {fileID: 0}
  - target: {fileID: 0}
    propertyPath: allowedAutorotateToPortrait
    value: 1
    objectReference: {fileID: 0}
  - target: {fileID: 0}
    propertyPath: allowedAutorotateToPortraitUpsideDown
    value: 1
    objectReference: {fileID: 0}
  - target: {fileID: 0}
    propertyPath: allowedAutorotateToLandscapeRight
    value: 1
    objectReference: {fileID: 0}
  - target: {fileID: 0}
    propertyPath: allowedAutorotateToLandscapeLeft
    value: 1
    objectReference: {fileID: 0}
  - target: {fileID: 0}
    propertyPath: useOSAutorotation
    value: 1
    objectReference: {fileID: 0}
  - target: {fileID: 0}
    propertyPath: use32BitDisplayBuffer
    value: 1
    objectReference: {fileID: 0}
  - target: {fileID: 0}
    propertyPath: preserveFramebufferAlpha
    value: 0
    objectReference: {fileID: 0}
  - target: {fileID: 0}
    propertyPath: disableDepthAndStencilBuffers
    value: 0
    objectReference: {fileID: 0}
  - target: {fileID: 0}
    propertyPath: androidStartInFullscreen
    value: 1
    objectReference: {fileID: 0}
  - target: {fileID: 0}
    propertyPath: androidRenderOutsideSafeArea
    value: 0
    objectReference: {fileID: 0}
  - target: {fileID: 0}
    propertyPath: androidUseSwappy
    value: 1
    objectReference: {fileID: 0}
  - target: {fileID: 0}
    propertyPath: androidBlitType
    value: 0
    objectReference: {fileID: 0}
  - target: {fileID: 0}
    propertyPath: androidResizableWindow
    value: 0
    objectReference: {fileID: 0}
  - target: {fileID: 0}
    propertyPath: androidDefaultWindowWidth
    value: 1920
    objectReference: {fileID: 0}
  - target: {fileID: 0}
    propertyPath: androidDefaultWindowHeight
    value: 1080
    objectReference: {fileID: 0}
  - target: {fileID: 0}
    propertyPath: androidMinimumWindowWidth
    value: 400
    objectReference: {fileID: 0}
  - target: {fileID: 0}
    propertyPath: androidMinimumWindowHeight
    value: 300
    objectReference: {fileID: 0}
  - target: {fileID: 0}
    propertyPath: androidFullscreenMode
    value: 1
    objectReference: {fileID: 0}
  - target: {fileID: 0}
    propertyPath: defaultIsNativeResolution
    value: 1
    objectReference: {fileID: 0}
  - target: {fileID: 0}
    propertyPath: macRetinaSupport
    value: 1
    objectReference: {fileID: 0}
  - target: {fileID: 0}
    propertyPath: runInBackground
    value: 0
    objectReference: {fileID: 0}
  - target: {fileID: 0}
    propertyPath: captureSingleScreen
    value: 0
    objectReference: {fileID: 0}
  - target: {fileID: 0}
    propertyPath: muteOtherAudioSources
    value: 0
    objectReference: {fileID: 0}
  - target: {fileID: 0}
    propertyPath: Prepare IOS For Recording
    value: 0
    objectReference: {fileID: 0}
  - target: {fileID: 0}
    propertyPath: Force IOS Speakers When Recording
    value: 0
    objectReference: {fileID: 0}
  - target: {fileID: 0}
    propertyPath: deferSystemGesturesMode
    value: 0
    objectReference: {fileID: 0}
  - target: {fileID: 0}
    propertyPath: hideHomeButton
    value: 0
    objectReference: {fileID: 0}
  - target: {fileID: 0}
    propertyPath: submitAnalytics
    value: 1
    objectReference: {fileID: 0}
  - target: {fileID: 0}
    propertyPath: usePlayerLog
    value: 1
    objectReference: {fileID: 0}
  - target: {fileID: 0}
    propertyPath: bakeCollisionMeshes
    value: 0
    objectReference: {fileID: 0}
  - target: {fileID: 0}
    propertyPath: forceSingleInstance
    value: 0
    objectReference: {fileID: 0}
  - target: {fileID: 0}
    propertyPath: useFlipModelSwapchain
    value: 1
    objectReference: {fileID: 0}
  - target: {fileID: 0}
    propertyPath: resizableWindow
    value: 0
    objectReference: {fileID: 0}
  - target: {fileID: 0}
    propertyPath: useMacAppStoreValidation
    value: 0
    objectReference: {fileID: 0}
  - target: {fileID: 0}
    propertyPath: macAppStoreCategory
    value: public.app-category.games
    objectReference: {fileID: 0}
  - target: {fileID: 0}
    propertyPath: gpuSkinning
    value: 0
    objectReference: {fileID: 0}
  - target: {fileID: 0}
    propertyPath: xboxPIXTextureCapture
    value: 0
    objectReference: {fileID: 0}
  - target: {fileID: 0}
    propertyPath: xboxEnableAvatar
    value: 0
    objectReference: {fileID: 0}
  - target: {fileID: 0}
    propertyPath: xboxEnableKinect
    value: 0
    objectReference: {fileID: 0}
  - target: {fileID: 0}
    propertyPath: xboxEnableKinectAutoTracking
    value: 0
    objectReference: {fileID: 0}
  - target: {fileID: 0}
    propertyPath: xboxEnableFitness
    value: 0
    objectReference: {fileID: 0}
  - target: {fileID: 0}
    propertyPath: visibleInBackground
    value: 1
    objectReference: {fileID: 0}
  - target: {fileID: 0}
    propertyPath: allowFullscreenSwitch
    value: 1
    objectReference: {fileID: 0}
  - target: {fileID: 0}
    propertyPath: fullscreenMode
    value: 1
    objectReference: {fileID: 0}
  - target: {fileID: 0}
    propertyPath: xboxSpeechDB
    value: 0
    objectReference: {fileID: 0}
  - target: {fileID: 0}
    propertyPath: xboxEnableHeadOrientation
    value: 0
    objectReference: {fileID: 0}
  - target: {fileID: 0}
    propertyPath: xboxEnableGuest
    value: 0
    objectReference: {fileID: 0}
  - target: {fileID: 0}
    propertyPath: xboxEnablePIXSampling
    value: 0
    objectReference: {fileID: 0}
  - target: {fileID: 0}
    propertyPath: metalFramebufferOnly
    value: 0
    objectReference: {fileID: 0}
  - target: {fileID: 0}
    propertyPath: xboxOneResolution
    value: 0
    objectReference: {fileID: 0}
  - target: {fileID: 0}
    propertyPath: xboxOneSResolution
    value: 0
    objectReference: {fileID: 0}
  - target: {fileID: 0}
    propertyPath: xboxOneXResolution
    value: 3
    objectReference: {fileID: 0}
  - target: {fileID: 0}
    propertyPath: xboxOneMonoLoggingLevel
    value: 0
    objectReference: {fileID: 0}
  - target: {fileID: 0}
    propertyPath: xboxOneLoggingLevel
    value: 1
    objectReference: {fileID: 0}
  - target: {fileID: 0}
    propertyPath: xboxOneDisableEsram
    value: 0
    objectReference: {fileID: 0}
  - target: {fileID: 0}
    propertyPath: xboxOneEnableTypeOptimization
    value: 0
    objectReference: {fileID: 0}
  - target: {fileID: 0}
    propertyPath: xboxOnePresentImmediateThreshold
    value: 0
    objectReference: {fileID: 0}
  - target: {fileID: 0}
    propertyPath: switchQueueCommandMemory
    value: 1048576
    objectReference: {fileID: 0}
  - target: {fileID: 0}
    propertyPath: switchQueueControlMemory
    value: 16384
    objectReference: {fileID: 0}
  - target: {fileID: 0}
    propertyPath: switchQueueComputeMemory
    value: 262144
    objectReference: {fileID: 0}
  - target: {fileID: 0}
    propertyPath: switchNVNShaderPoolsGranularity
    value: 33554432
    objectReference: {fileID: 0}
  - target: {fileID: 0}
    propertyPath: switchNVNDefaultPoolsGranularity
    value: 16777216
    objectReference: {fileID: 0}
  - target: {fileID: 0}
    propertyPath: switchNVNOtherPoolsGranularity
    value: 16777216
    objectReference: {fileID: 0}
  - target: {fileID: 0}
    propertyPath: switchNVNMaxPublicTextureIDCount
    value: 0
    objectReference: {fileID: 0}
  - target: {fileID: 0}
    propertyPath: switchNVNMaxPublicSamplerIDCount
    value: 0
    objectReference: {fileID: 0}
  - target: {fileID: 0}
    propertyPath: stadiaPresentMode
    value: 0
    objectReference: {fileID: 0}
  - target: {fileID: 0}
    propertyPath: stadiaTargetFramerate
    value: 0
    objectReference: {fileID: 0}
  - target: {fileID: 0}
    propertyPath: vulkanNumSwapchainBuffers
    value: 3
    objectReference: {fileID: 0}
  - target: {fileID: 0}
    propertyPath: vulkanEnableSetSRGBWrite
    value: 0
    objectReference: {fileID: 0}
  - target: {fileID: 0}
    propertyPath: vulkanEnablePreTransform
    value: 0
    objectReference: {fileID: 0}
  - target: {fileID: 0}
    propertyPath: vulkanEnableLateAcquireNextImage
    value: 0
    objectReference: {fileID: 0}
  - target: {fileID: 0}
    propertyPath: vulkanEnableCommandBufferRecycling
    value: 1
    objectReference: {fileID: 0}
  - target: {fileID: 0}
    propertyPath: m_SupportedAspectRatios.4:3
    value: 1
    objectReference: {fileID: 0}
  - target: {fileID: 0}
    propertyPath: m_SupportedAspectRatios.5:4
    value: 1
    objectReference: {fileID: 0}
  - target: {fileID: 0}
    propertyPath: m_SupportedAspectRatios.16:10
    value: 1
    objectReference: {fileID: 0}
  - target: {fileID: 0}
    propertyPath: m_SupportedAspectRatios.16:9
    value: 1
    objectReference: {fileID: 0}
  - target: {fileID: 0}
    propertyPath: m_SupportedAspectRatios.Others
    value: 1
    objectReference: {fileID: 0}
  - target: {fileID: 0}
    propertyPath: bundleVersion
    value: 1.0
    objectReference: {fileID: 0}
  - target: {fileID: 0}
    propertyPath: preloadedAssets.Array.size
    value: 0
    objectReference: {fileID: 0}
  - target: {fileID: 0}
    propertyPath: metroInputSource
    value: 0
    objectReference: {fileID: 0}
  - target: {fileID: 0}
    propertyPath: wsaTransparentSwapchain
    value: 0
    objectReference: {fileID: 0}
  - target: {fileID: 0}
    propertyPath: m_HolographicPauseOnTrackingLoss
    value: 1
    objectReference: {fileID: 0}
  - target: {fileID: 0}
    propertyPath: xboxOneDisableKinectGpuReservation
    value: 1
    objectReference: {fileID: 0}
  - target: {fileID: 0}
    propertyPath: xboxOneEnable7thCore
    value: 1
    objectReference: {fileID: 0}
  - target: {fileID: 0}
    propertyPath: vrSettings.enable360StereoCapture
    value: 0
    objectReference: {fileID: 0}
  - target: {fileID: 0}
    propertyPath: isWsaHolographicRemotingEnabled
    value: 0
    objectReference: {fileID: 0}
  - target: {fileID: 0}
    propertyPath: enableFrameTimingStats
    value: 0
    objectReference: {fileID: 0}
  - target: {fileID: 0}
    propertyPath: enableOpenGLProfilerGPURecorders
    value: 1
    objectReference: {fileID: 0}
  - target: {fileID: 0}
    propertyPath: useHDRDisplay
    value: 0
    objectReference: {fileID: 0}
  - target: {fileID: 0}
    propertyPath: D3DHDRBitDepth
    value: 0
    objectReference: {fileID: 0}
  - target: {fileID: 0}
    propertyPath: m_ColorGamuts.Array.size
    value: 1
    objectReference: {fileID: 0}
  - target: {fileID: 0}
    propertyPath: m_ColorGamuts.Array.data[0]
    value: 0
    objectReference: {fileID: 0}
  - target: {fileID: 0}
    propertyPath: targetPixelDensity
    value: 30
    objectReference: {fileID: 0}
  - target: {fileID: 0}
    propertyPath: resolutionScalingMode
    value: 0
    objectReference: {fileID: 0}
  - target: {fileID: 0}
    propertyPath: resetResolutionOnWindowResize
    value: 0
    objectReference: {fileID: 0}
  - target: {fileID: 0}
    propertyPath: androidSupportedAspectRatio
    value: 1
    objectReference: {fileID: 0}
  - target: {fileID: 0}
    propertyPath: androidMaxAspectRatio
    value: 2.1
    objectReference: {fileID: 0}
  - target: {fileID: 0}
    propertyPath: applicationIdentifier.Array.size
    value: 1
    objectReference: {fileID: 0}
  - target: {fileID: 0}
    propertyPath: applicationIdentifier.Array.data[0].first
    value: Standalone
    objectReference: {fileID: 0}
  - target: {fileID: 0}
    propertyPath: applicationIdentifier.Array.data[0].second
    value: com.DefaultCompany.Uni-Run
    objectReference: {fileID: 0}
  - target: {fileID: 0}
    propertyPath: buildNumber.Array.size
    value: 3
    objectReference: {fileID: 0}
  - target: {fileID: 0}
    propertyPath: buildNumber.Array.data[0].first
    value: Standalone
    objectReference: {fileID: 0}
  - target: {fileID: 0}
    propertyPath: buildNumber.Array.data[0].second
    value: 0
    objectReference: {fileID: 0}
  - target: {fileID: 0}
    propertyPath: buildNumber.Array.data[1].first
    value: iPhone
    objectReference: {fileID: 0}
  - target: {fileID: 0}
    propertyPath: buildNumber.Array.data[1].second
    value: 0
    objectReference: {fileID: 0}
  - target: {fileID: 0}
    propertyPath: buildNumber.Array.data[2].first
    value: tvOS
    objectReference: {fileID: 0}
  - target: {fileID: 0}
    propertyPath: buildNumber.Array.data[2].second
    value: 0
    objectReference: {fileID: 0}
  - target: {fileID: 0}
    propertyPath: overrideDefaultApplicationIdentifier
    value: 0
    objectReference: {fileID: 0}
  - target: {fileID: 0}
    propertyPath: AndroidBundleVersionCode
    value: 1
    objectReference: {fileID: 0}
  - target: {fileID: 0}
    propertyPath: AndroidMinSdkVersion
    value: 22
    objectReference: {fileID: 0}
  - target: {fileID: 0}
    propertyPath: AndroidTargetSdkVersion
    value: 0
    objectReference: {fileID: 0}
  - target: {fileID: 0}
    propertyPath: AndroidPreferredInstallLocation
    value: 1
    objectReference: {fileID: 0}
  - target: {fileID: 0}
    propertyPath: aotOptions
    value: 
    objectReference: {fileID: 0}
  - target: {fileID: 0}
    propertyPath: stripEngineCode
    value: 1
    objectReference: {fileID: 0}
  - target: {fileID: 0}
    propertyPath: iPhoneStrippingLevel
    value: 0
    objectReference: {fileID: 0}
  - target: {fileID: 0}
    propertyPath: iPhoneScriptCallOptimization
    value: 0
    objectReference: {fileID: 0}
  - target: {fileID: 0}
    propertyPath: ForceInternetPermission
    value: 0
    objectReference: {fileID: 0}
  - target: {fileID: 0}
    propertyPath: ForceSDCardPermission
    value: 0
    objectReference: {fileID: 0}
  - target: {fileID: 0}
    propertyPath: CreateWallpaper
    value: 0
    objectReference: {fileID: 0}
  - target: {fileID: 0}
    propertyPath: APKExpansionFiles
    value: 0
    objectReference: {fileID: 0}
  - target: {fileID: 0}
    propertyPath: keepLoadedShadersAlive
    value: 0
    objectReference: {fileID: 0}
  - target: {fileID: 0}
    propertyPath: StripUnusedMeshComponents
    value: 0
    objectReference: {fileID: 0}
  - target: {fileID: 0}
    propertyPath: VertexChannelCompressionMask
    value: 4054
    objectReference: {fileID: 0}
  - target: {fileID: 0}
    propertyPath: iPhoneSdkVersion
    value: 988
    objectReference: {fileID: 0}
  - target: {fileID: 0}
    propertyPath: iOSTargetOSVersionString
    value: 12.0
    objectReference: {fileID: 0}
  - target: {fileID: 0}
    propertyPath: tvOSSdkVersion
    value: 0
    objectReference: {fileID: 0}
  - target: {fileID: 0}
    propertyPath: tvOSRequireExtendedGameController
    value: 0
    objectReference: {fileID: 0}
  - target: {fileID: 0}
    propertyPath: tvOSTargetOSVersionString
    value: 12.0
    objectReference: {fileID: 0}
  - target: {fileID: 0}
    propertyPath: uIPrerenderedIcon
    value: 0
    objectReference: {fileID: 0}
  - target: {fileID: 0}
    propertyPath: uIRequiresPersistentWiFi
    value: 0
    objectReference: {fileID: 0}
  - target: {fileID: 0}
    propertyPath: uIRequiresFullScreen
    value: 1
    objectReference: {fileID: 0}
  - target: {fileID: 0}
    propertyPath: uIStatusBarHidden
    value: 1
    objectReference: {fileID: 0}
  - target: {fileID: 0}
    propertyPath: uIExitOnSuspend
    value: 0
    objectReference: {fileID: 0}
  - target: {fileID: 0}
    propertyPath: uIStatusBarStyle
    value: 0
    objectReference: {fileID: 0}
  - target: {fileID: 0}
    propertyPath: appleTVSplashScreen
    value: 
    objectReference: {fileID: 0}
  - target: {fileID: 0}
    propertyPath: appleTVSplashScreen2x
    value: 
    objectReference: {fileID: 0}
  - target: {fileID: 0}
    propertyPath: tvOSSmallIconLayers.Array.size
    value: 0
    objectReference: {fileID: 0}
  - target: {fileID: 0}
    propertyPath: tvOSSmallIconLayers2x.Array.size
    value: 0
    objectReference: {fileID: 0}
  - target: {fileID: 0}
    propertyPath: tvOSLargeIconLayers.Array.size
    value: 0
    objectReference: {fileID: 0}
  - target: {fileID: 0}
    propertyPath: tvOSLargeIconLayers2x.Array.size
    value: 0
    objectReference: {fileID: 0}
  - target: {fileID: 0}
    propertyPath: tvOSTopShelfImageLayers.Array.size
    value: 0
    objectReference: {fileID: 0}
  - target: {fileID: 0}
    propertyPath: tvOSTopShelfImageLayers2x.Array.size
    value: 0
    objectReference: {fileID: 0}
  - target: {fileID: 0}
    propertyPath: tvOSTopShelfImageWideLayers.Array.size
    value: 0
    objectReference: {fileID: 0}
  - target: {fileID: 0}
    propertyPath: tvOSTopShelfImageWideLayers2x.Array.size
    value: 0
    objectReference: {fileID: 0}
  - target: {fileID: 0}
    propertyPath: iOSLaunchScreenType
    value: 0
    objectReference: {fileID: 0}
  - target: {fileID: 0}
    propertyPath: iOSLaunchScreenPortrait
    value: 
    objectReference: {fileID: 0}
  - target: {fileID: 0}
    propertyPath: iOSLaunchScreenLandscape
    value: 
    objectReference: {fileID: 0}
  - target: {fileID: 0}
    propertyPath: iOSLaunchScreenBackgroundColor.rgba
    value: 0
    objectReference: {fileID: 0}
  - target: {fileID: 0}
    propertyPath: iOSLaunchScreenFillPct
    value: 100
    objectReference: {fileID: 0}
  - target: {fileID: 0}
    propertyPath: iOSLaunchScreenSize
    value: 100
    objectReference: {fileID: 0}
  - target: {fileID: 0}
    propertyPath: iOSLaunchScreenCustomXibPath
    value: 
    objectReference: {fileID: 0}
  - target: {fileID: 0}
    propertyPath: iOSLaunchScreeniPadType
    value: 0
    objectReference: {fileID: 0}
  - target: {fileID: 0}
    propertyPath: iOSLaunchScreeniPadImage
    value: 
    objectReference: {fileID: 0}
  - target: {fileID: 0}
    propertyPath: iOSLaunchScreeniPadBackgroundColor.rgba
    value: 0
    objectReference: {fileID: 0}
  - target: {fileID: 0}
    propertyPath: iOSLaunchScreeniPadFillPct
    value: 100
    objectReference: {fileID: 0}
  - target: {fileID: 0}
    propertyPath: iOSLaunchScreeniPadSize
    value: 100
    objectReference: {fileID: 0}
  - target: {fileID: 0}
    propertyPath: iOSLaunchScreeniPadCustomXibPath
    value: 
    objectReference: {fileID: 0}
  - target: {fileID: 0}
    propertyPath: iOSLaunchScreenCustomStoryboardPath
    value: 
    objectReference: {fileID: 0}
  - target: {fileID: 0}
    propertyPath: iOSLaunchScreeniPadCustomStoryboardPath
    value: 
    objectReference: {fileID: 0}
  - target: {fileID: 0}
    propertyPath: iOSDeviceRequirements.Array.size
    value: 0
    objectReference: {fileID: 0}
  - target: {fileID: 0}
    propertyPath: iOSURLSchemes.Array.size
    value: 0
    objectReference: {fileID: 0}
  - target: {fileID: 0}
    propertyPath: macOSURLSchemes.Array.size
    value: 0
    objectReference: {fileID: 0}
  - target: {fileID: 0}
    propertyPath: iOSBackgroundModes
    value: 0
    objectReference: {fileID: 0}
  - target: {fileID: 0}
    propertyPath: iOSMetalForceHardShadows
    value: 0
    objectReference: {fileID: 0}
  - target: {fileID: 0}
    propertyPath: metalEditorSupport
    value: 1
    objectReference: {fileID: 0}
  - target: {fileID: 0}
    propertyPath: metalAPIValidation
    value: 1
    objectReference: {fileID: 0}
  - target: {fileID: 0}
    propertyPath: iOSRenderExtraFrameOnPause
    value: 0
    objectReference: {fileID: 0}
  - target: {fileID: 0}
    propertyPath: iosCopyPluginsCodeInsteadOfSymlink
    value: 0
    objectReference: {fileID: 0}
  - target: {fileID: 0}
    propertyPath: appleDeveloperTeamID
    value: 
    objectReference: {fileID: 0}
  - target: {fileID: 0}
    propertyPath: iOSManualSigningProvisioningProfileID
    value: 
    objectReference: {fileID: 0}
  - target: {fileID: 0}
    propertyPath: tvOSManualSigningProvisioningProfileID
    value: 
    objectReference: {fileID: 0}
  - target: {fileID: 0}
    propertyPath: iOSManualSigningProvisioningProfileType
    value: 0
    objectReference: {fileID: 0}
  - target: {fileID: 0}
    propertyPath: tvOSManualSigningProvisioningProfileType
    value: 0
    objectReference: {fileID: 0}
  - target: {fileID: 0}
    propertyPath: appleEnableAutomaticSigning
    value: 0
    objectReference: {fileID: 0}
  - target: {fileID: 0}
    propertyPath: iOSRequireARKit
    value: 0
    objectReference: {fileID: 0}
  - target: {fileID: 0}
    propertyPath: iOSAutomaticallyDetectAndAddCapabilities
    value: 1
    objectReference: {fileID: 0}
  - target: {fileID: 0}
    propertyPath: appleEnableProMotion
    value: 0
    objectReference: {fileID: 0}
  - target: {fileID: 0}
    propertyPath: shaderPrecisionModel
    value: 0
    objectReference: {fileID: 0}
  - target: {fileID: 0}
    propertyPath: clonedFromGUID.data[0]
    value: 1501198831
    objectReference: {fileID: 0}
  - target: {fileID: 0}
    propertyPath: clonedFromGUID.data[1]
    value: 1113663084
    objectReference: {fileID: 0}
  - target: {fileID: 0}
    propertyPath: clonedFromGUID.data[2]
    value: 3746156442
    objectReference: {fileID: 0}
  - target: {fileID: 0}
    propertyPath: clonedFromGUID.data[3]
    value: 2317038658
    objectReference: {fileID: 0}
  - target: {fileID: 0}
    propertyPath: templatePackageId
    value: com.unity.template.2d@1.0.0
    objectReference: {fileID: 0}
  - target: {fileID: 0}
    propertyPath: templateDefaultScene
    value: Assets/Scenes/SampleScene.unity
    objectReference: {fileID: 0}
  - target: {fileID: 0}
    propertyPath: useCustomMainManifest
    value: 0
    objectReference: {fileID: 0}
  - target: {fileID: 0}
    propertyPath: useCustomLauncherManifest
    value: 0
    objectReference: {fileID: 0}
  - target: {fileID: 0}
    propertyPath: useCustomMainGradleTemplate
    value: 0
    objectReference: {fileID: 0}
  - target: {fileID: 0}
    propertyPath: useCustomLauncherGradleManifest
    value: 0
    objectReference: {fileID: 0}
  - target: {fileID: 0}
    propertyPath: useCustomBaseGradleTemplate
    value: 0
    objectReference: {fileID: 0}
  - target: {fileID: 0}
    propertyPath: useCustomGradlePropertiesTemplate
    value: 0
    objectReference: {fileID: 0}
  - target: {fileID: 0}
    propertyPath: useCustomProguardFile
    value: 0
    objectReference: {fileID: 0}
  - target: {fileID: 0}
    propertyPath: AndroidTargetArchitectures
    value: 1
    objectReference: {fileID: 0}
  - target: {fileID: 0}
    propertyPath: AndroidTargetDevices
    value: 0
    objectReference: {fileID: 0}
  - target: {fileID: 0}
    propertyPath: AndroidSplashScreenScale
    value: 0
    objectReference: {fileID: 0}
  - target: {fileID: 0}
    propertyPath: androidSplashScreen
    value: 
    objectReference: {fileID: 0}
  - target: {fileID: 0}
    propertyPath: AndroidKeystoreName
    value: '{inproject}: '
    objectReference: {fileID: 0}
  - target: {fileID: 0}
    propertyPath: AndroidKeyaliasName
    value: 
    objectReference: {fileID: 0}
  - target: {fileID: 0}
    propertyPath: AndroidBuildApkPerCpuArchitecture
    value: 0
    objectReference: {fileID: 0}
  - target: {fileID: 0}
    propertyPath: AndroidTVCompatibility
    value: 0
    objectReference: {fileID: 0}
  - target: {fileID: 0}
    propertyPath: AndroidIsGame
    value: 1
    objectReference: {fileID: 0}
  - target: {fileID: 0}
    propertyPath: AndroidEnableTango
    value: 0
    objectReference: {fileID: 0}
  - target: {fileID: 0}
    propertyPath: androidEnableBanner
    value: 1
    objectReference: {fileID: 0}
  - target: {fileID: 0}
    propertyPath: androidUseLowAccuracyLocation
    value: 0
    objectReference: {fileID: 0}
  - target: {fileID: 0}
    propertyPath: androidUseCustomKeystore
    value: 0
    objectReference: {fileID: 0}
  - target: {fileID: 0}
    propertyPath: m_AndroidBanners.Array.size
    value: 1
    objectReference: {fileID: 0}
  - target: {fileID: 0}
    propertyPath: m_AndroidBanners.Array.data[0].width
    value: 320
    objectReference: {fileID: 0}
  - target: {fileID: 0}
    propertyPath: m_AndroidBanners.Array.data[0].height
    value: 180
    objectReference: {fileID: 0}
  - target: {fileID: 0}
    propertyPath: m_AndroidBanners.Array.data[0].banner
    value: 
    objectReference: {fileID: 0}
  - target: {fileID: 0}
    propertyPath: androidGamepadSupportLevel
    value: 0
    objectReference: {fileID: 0}
  - target: {fileID: 0}
    propertyPath: chromeosInputEmulation
    value: 1
    objectReference: {fileID: 0}
  - target: {fileID: 0}
    propertyPath: AndroidMinifyWithR8
    value: 0
    objectReference: {fileID: 0}
  - target: {fileID: 0}
    propertyPath: AndroidMinifyRelease
    value: 0
    objectReference: {fileID: 0}
  - target: {fileID: 0}
    propertyPath: AndroidMinifyDebug
    value: 0
    objectReference: {fileID: 0}
  - target: {fileID: 0}
    propertyPath: AndroidValidateAppBundleSize
    value: 1
    objectReference: {fileID: 0}
  - target: {fileID: 0}
    propertyPath: AndroidAppBundleSizeToValidate
    value: 150
    objectReference: {fileID: 0}
  - target: {fileID: 0}
    propertyPath: m_BuildTargetIcons.Array.size
    value: 0
    objectReference: {fileID: 0}
  - target: {fileID: 0}
    propertyPath: m_BuildTargetPlatformIcons.Array.size
    value: 0
    objectReference: {fileID: 0}
  - target: {fileID: 0}
    propertyPath: m_BuildTargetBatching.Array.size
    value: 0
    objectReference: {fileID: 0}
  - target: {fileID: 0}
    propertyPath: m_BuildTargetShaderSettings.Array.size
    value: 0
    objectReference: {fileID: 0}
  - target: {fileID: 0}
    propertyPath: m_BuildTargetGraphicsJobs.Array.size
    value: 0
    objectReference: {fileID: 0}
  - target: {fileID: 0}
    propertyPath: m_BuildTargetGraphicsJobMode.Array.size
    value: 0
    objectReference: {fileID: 0}
  - target: {fileID: 0}
    propertyPath: m_BuildTargetGraphicsAPIs.Array.size
    value: 0
    objectReference: {fileID: 0}
  - target: {fileID: 0}
    propertyPath: m_BuildTargetVRSettings.Array.size
    value: 0
    objectReference: {fileID: 0}
  - target: {fileID: 0}
    propertyPath: m_DefaultShaderChunkSizeInMB
    value: 16
    objectReference: {fileID: 0}
  - target: {fileID: 0}
    propertyPath: m_DefaultShaderChunkCount
    value: 0
    objectReference: {fileID: 0}
  - target: {fileID: 0}
    propertyPath: openGLRequireES31
    value: 0
    objectReference: {fileID: 0}
  - target: {fileID: 0}
    propertyPath: openGLRequireES31AEP
    value: 0
    objectReference: {fileID: 0}
  - target: {fileID: 0}
    propertyPath: openGLRequireES32
    value: 0
    objectReference: {fileID: 0}
  - target: {fileID: 0}
    propertyPath: m_TemplateCustomTags.Array.size
    value: 0
    objectReference: {fileID: 0}
  - target: {fileID: 0}
    propertyPath: mobileMTRendering.Array.size
    value: 3
    objectReference: {fileID: 0}
  - target: {fileID: 0}
    propertyPath: mobileMTRendering.Array.data[0].first
    value: Android
    objectReference: {fileID: 0}
  - target: {fileID: 0}
    propertyPath: mobileMTRendering.Array.data[0].second
    value: 1
    objectReference: {fileID: 0}
  - target: {fileID: 0}
    propertyPath: mobileMTRendering.Array.data[1].first
    value: iPhone
    objectReference: {fileID: 0}
  - target: {fileID: 0}
    propertyPath: mobileMTRendering.Array.data[1].second
    value: 1
    objectReference: {fileID: 0}
  - target: {fileID: 0}
    propertyPath: mobileMTRendering.Array.data[2].first
    value: tvOS
    objectReference: {fileID: 0}
  - target: {fileID: 0}
    propertyPath: mobileMTRendering.Array.data[2].second
    value: 1
    objectReference: {fileID: 0}
  - target: {fileID: 0}
    propertyPath: m_BuildTargetGroupLightmapEncodingQuality.Array.size
    value: 0
    objectReference: {fileID: 0}
  - target: {fileID: 0}
    propertyPath: m_BuildTargetGroupLightmapSettings.Array.size
    value: 0
    objectReference: {fileID: 0}
  - target: {fileID: 0}
    propertyPath: m_BuildTargetNormalMapEncoding.Array.size
    value: 0
    objectReference: {fileID: 0}
  - target: {fileID: 0}
    propertyPath: m_BuildTargetDefaultTextureCompressionFormat.Array.size
    value: 0
    objectReference: {fileID: 0}
  - target: {fileID: 0}
    propertyPath: playModeTestRunnerEnabled
    value: 0
    objectReference: {fileID: 0}
  - target: {fileID: 0}
    propertyPath: runPlayModeTestAsEditModeTest
    value: 0
    objectReference: {fileID: 0}
  - target: {fileID: 0}
    propertyPath: actionOnDotNetUnhandledException
    value: 1
    objectReference: {fileID: 0}
  - target: {fileID: 0}
    propertyPath: enableInternalProfiler
    value: 0
    objectReference: {fileID: 0}
  - target: {fileID: 0}
    propertyPath: logObjCUncaughtExceptions
    value: 1
    objectReference: {fileID: 0}
  - target: {fileID: 0}
    propertyPath: enableCrashReportAPI
    value: 0
    objectReference: {fileID: 0}
  - target: {fileID: 0}
    propertyPath: cameraUsageDescription
    value: 
    objectReference: {fileID: 0}
  - target: {fileID: 0}
    propertyPath: locationUsageDescription
    value: 
    objectReference: {fileID: 0}
  - target: {fileID: 0}
    propertyPath: microphoneUsageDescription
    value: 
    objectReference: {fileID: 0}
  - target: {fileID: 0}
    propertyPath: bluetoothUsageDescription
    value: 
    objectReference: {fileID: 0}
  - target: {fileID: 0}
    propertyPath: switchNMETAOverride
    value: 
    objectReference: {fileID: 0}
  - target: {fileID: 0}
    propertyPath: switchNetLibKey
    value: 
    objectReference: {fileID: 0}
  - target: {fileID: 0}
    propertyPath: switchSocketMemoryPoolSize
    value: 6144
    objectReference: {fileID: 0}
  - target: {fileID: 0}
    propertyPath: switchSocketAllocatorPoolSize
    value: 128
    objectReference: {fileID: 0}
  - target: {fileID: 0}
    propertyPath: switchSocketConcurrencyLimit
    value: 14
    objectReference: {fileID: 0}
  - target: {fileID: 0}
    propertyPath: switchScreenResolutionBehavior
    value: 2
    objectReference: {fileID: 0}
  - target: {fileID: 0}
    propertyPath: switchUseCPUProfiler
    value: 0
    objectReference: {fileID: 0}
  - target: {fileID: 0}
    propertyPath: switchUseGOLDLinker
    value: 0
    objectReference: {fileID: 0}
  - target: {fileID: 0}
    propertyPath: switchLTOSetting
    value: 0
    objectReference: {fileID: 0}
  - target: {fileID: 0}
    propertyPath: switchApplicationID
    value: 0x01004b9000490000
    objectReference: {fileID: 0}
  - target: {fileID: 0}
    propertyPath: switchNSODependencies
    value: 
    objectReference: {fileID: 0}
  - target: {fileID: 0}
    propertyPath: switchTitleNames_0
    value: 
    objectReference: {fileID: 0}
  - target: {fileID: 0}
    propertyPath: switchTitleNames_1
    value: 
    objectReference: {fileID: 0}
  - target: {fileID: 0}
    propertyPath: switchTitleNames_2
    value: 
    objectReference: {fileID: 0}
  - target: {fileID: 0}
    propertyPath: switchTitleNames_3
    value: 
    objectReference: {fileID: 0}
  - target: {fileID: 0}
    propertyPath: switchTitleNames_4
    value: 
    objectReference: {fileID: 0}
  - target: {fileID: 0}
    propertyPath: switchTitleNames_5
    value: 
    objectReference: {fileID: 0}
  - target: {fileID: 0}
    propertyPath: switchTitleNames_6
    value: 
    objectReference: {fileID: 0}
  - target: {fileID: 0}
    propertyPath: switchTitleNames_7
    value: 
    objectReference: {fileID: 0}
  - target: {fileID: 0}
    propertyPath: switchTitleNames_8
    value: 
    objectReference: {fileID: 0}
  - target: {fileID: 0}
    propertyPath: switchTitleNames_9
    value: 
    objectReference: {fileID: 0}
  - target: {fileID: 0}
    propertyPath: switchTitleNames_10
    value: 
    objectReference: {fileID: 0}
  - target: {fileID: 0}
    propertyPath: switchTitleNames_11
    value: 
    objectReference: {fileID: 0}
  - target: {fileID: 0}
    propertyPath: switchTitleNames_12
    value: 
    objectReference: {fileID: 0}
  - target: {fileID: 0}
    propertyPath: switchTitleNames_13
    value: 
    objectReference: {fileID: 0}
  - target: {fileID: 0}
    propertyPath: switchTitleNames_14
    value: 
    objectReference: {fileID: 0}
  - target: {fileID: 0}
    propertyPath: switchTitleNames_15
    value: 
    objectReference: {fileID: 0}
  - target: {fileID: 0}
    propertyPath: switchPublisherNames_0
    value: 
    objectReference: {fileID: 0}
  - target: {fileID: 0}
    propertyPath: switchPublisherNames_1
    value: 
    objectReference: {fileID: 0}
  - target: {fileID: 0}
    propertyPath: switchPublisherNames_2
    value: 
    objectReference: {fileID: 0}
  - target: {fileID: 0}
    propertyPath: switchPublisherNames_3
    value: 
    objectReference: {fileID: 0}
  - target: {fileID: 0}
    propertyPath: switchPublisherNames_4
    value: 
    objectReference: {fileID: 0}
  - target: {fileID: 0}
    propertyPath: switchPublisherNames_5
    value: 
    objectReference: {fileID: 0}
  - target: {fileID: 0}
    propertyPath: switchPublisherNames_6
    value: 
    objectReference: {fileID: 0}
  - target: {fileID: 0}
    propertyPath: switchPublisherNames_7
    value: 
    objectReference: {fileID: 0}
  - target: {fileID: 0}
    propertyPath: switchPublisherNames_8
    value: 
    objectReference: {fileID: 0}
  - target: {fileID: 0}
    propertyPath: switchPublisherNames_9
    value: 
    objectReference: {fileID: 0}
  - target: {fileID: 0}
    propertyPath: switchPublisherNames_10
    value: 
    objectReference: {fileID: 0}
  - target: {fileID: 0}
    propertyPath: switchPublisherNames_11
    value: 
    objectReference: {fileID: 0}
  - target: {fileID: 0}
    propertyPath: switchPublisherNames_12
    value: 
    objectReference: {fileID: 0}
  - target: {fileID: 0}
    propertyPath: switchPublisherNames_13
    value: 
    objectReference: {fileID: 0}
  - target: {fileID: 0}
    propertyPath: switchPublisherNames_14
    value: 
    objectReference: {fileID: 0}
  - target: {fileID: 0}
    propertyPath: switchPublisherNames_15
    value: 
    objectReference: {fileID: 0}
  - target: {fileID: 0}
    propertyPath: switchIcons_0
    value: 
    objectReference: {fileID: 0}
  - target: {fileID: 0}
    propertyPath: switchIcons_1
    value: 
    objectReference: {fileID: 0}
  - target: {fileID: 0}
    propertyPath: switchIcons_2
    value: 
    objectReference: {fileID: 0}
  - target: {fileID: 0}
    propertyPath: switchIcons_3
    value: 
    objectReference: {fileID: 0}
  - target: {fileID: 0}
    propertyPath: switchIcons_4
    value: 
    objectReference: {fileID: 0}
  - target: {fileID: 0}
    propertyPath: switchIcons_5
    value: 
    objectReference: {fileID: 0}
  - target: {fileID: 0}
    propertyPath: switchIcons_6
    value: 
    objectReference: {fileID: 0}
  - target: {fileID: 0}
    propertyPath: switchIcons_7
    value: 
    objectReference: {fileID: 0}
  - target: {fileID: 0}
    propertyPath: switchIcons_8
    value: 
    objectReference: {fileID: 0}
  - target: {fileID: 0}
    propertyPath: switchIcons_9
    value: 
    objectReference: {fileID: 0}
  - target: {fileID: 0}
    propertyPath: switchIcons_10
    value: 
    objectReference: {fileID: 0}
  - target: {fileID: 0}
    propertyPath: switchIcons_11
    value: 
    objectReference: {fileID: 0}
  - target: {fileID: 0}
    propertyPath: switchIcons_12
    value: 
    objectReference: {fileID: 0}
  - target: {fileID: 0}
    propertyPath: switchIcons_13
    value: 
    objectReference: {fileID: 0}
  - target: {fileID: 0}
    propertyPath: switchIcons_14
    value: 
    objectReference: {fileID: 0}
  - target: {fileID: 0}
    propertyPath: switchIcons_15
    value: 
    objectReference: {fileID: 0}
  - target: {fileID: 0}
    propertyPath: switchSmallIcons_0
    value: 
    objectReference: {fileID: 0}
  - target: {fileID: 0}
    propertyPath: switchSmallIcons_1
    value: 
    objectReference: {fileID: 0}
  - target: {fileID: 0}
    propertyPath: switchSmallIcons_2
    value: 
    objectReference: {fileID: 0}
  - target: {fileID: 0}
    propertyPath: switchSmallIcons_3
    value: 
    objectReference: {fileID: 0}
  - target: {fileID: 0}
    propertyPath: switchSmallIcons_4
    value: 
    objectReference: {fileID: 0}
  - target: {fileID: 0}
    propertyPath: switchSmallIcons_5
    value: 
    objectReference: {fileID: 0}
  - target: {fileID: 0}
    propertyPath: switchSmallIcons_6
    value: 
    objectReference: {fileID: 0}
  - target: {fileID: 0}
    propertyPath: switchSmallIcons_7
    value: 
    objectReference: {fileID: 0}
  - target: {fileID: 0}
    propertyPath: switchSmallIcons_8
    value: 
    objectReference: {fileID: 0}
  - target: {fileID: 0}
    propertyPath: switchSmallIcons_9
    value: 
    objectReference: {fileID: 0}
  - target: {fileID: 0}
    propertyPath: switchSmallIcons_10
    value: 
    objectReference: {fileID: 0}
  - target: {fileID: 0}
    propertyPath: switchSmallIcons_11
    value: 
    objectReference: {fileID: 0}
  - target: {fileID: 0}
    propertyPath: switchSmallIcons_12
    value: 
    objectReference: {fileID: 0}
  - target: {fileID: 0}
    propertyPath: switchSmallIcons_13
    value: 
    objectReference: {fileID: 0}
  - target: {fileID: 0}
    propertyPath: switchSmallIcons_14
    value: 
    objectReference: {fileID: 0}
  - target: {fileID: 0}
    propertyPath: switchSmallIcons_15
    value: 
    objectReference: {fileID: 0}
  - target: {fileID: 0}
    propertyPath: switchManualHTML
    value: 
    objectReference: {fileID: 0}
  - target: {fileID: 0}
    propertyPath: switchAccessibleURLs
    value: 
    objectReference: {fileID: 0}
  - target: {fileID: 0}
    propertyPath: switchLegalInformation
    value: 
    objectReference: {fileID: 0}
  - target: {fileID: 0}
    propertyPath: switchMainThreadStackSize
    value: 1048576
    objectReference: {fileID: 0}
  - target: {fileID: 0}
    propertyPath: switchPresenceGroupId
    value: 
    objectReference: {fileID: 0}
  - target: {fileID: 0}
    propertyPath: switchLogoHandling
    value: 0
    objectReference: {fileID: 0}
  - target: {fileID: 0}
    propertyPath: switchReleaseVersion
    value: 0
    objectReference: {fileID: 0}
  - target: {fileID: 0}
    propertyPath: switchDisplayVersion
    value: 1.0.0
    objectReference: {fileID: 0}
  - target: {fileID: 0}
    propertyPath: switchStartupUserAccount
    value: 0
    objectReference: {fileID: 0}
  - target: {fileID: 0}
    propertyPath: switchSupportedLanguagesMask
    value: 0
    objectReference: {fileID: 0}
  - target: {fileID: 0}
    propertyPath: switchLogoType
    value: 0
    objectReference: {fileID: 0}
  - target: {fileID: 0}
    propertyPath: switchApplicationErrorCodeCategory
    value: 
    objectReference: {fileID: 0}
  - target: {fileID: 0}
    propertyPath: switchUserAccountSaveDataSize
    value: 0
    objectReference: {fileID: 0}
  - target: {fileID: 0}
    propertyPath: switchUserAccountSaveDataJournalSize
    value: 0
    objectReference: {fileID: 0}
  - target: {fileID: 0}
    propertyPath: switchApplicationAttribute
    value: 0
    objectReference: {fileID: 0}
  - target: {fileID: 0}
    propertyPath: switchCardSpecSize
    value: -1
    objectReference: {fileID: 0}
  - target: {fileID: 0}
    propertyPath: switchCardSpecClock
    value: -1
    objectReference: {fileID: 0}
  - target: {fileID: 0}
    propertyPath: switchRatingsMask
    value: 0
    objectReference: {fileID: 0}
  - target: {fileID: 0}
    propertyPath: switchRatingsInt_0
    value: 0
    objectReference: {fileID: 0}
  - target: {fileID: 0}
    propertyPath: switchRatingsInt_1
    value: 0
    objectReference: {fileID: 0}
  - target: {fileID: 0}
    propertyPath: switchRatingsInt_2
    value: 0
    objectReference: {fileID: 0}
  - target: {fileID: 0}
    propertyPath: switchRatingsInt_3
    value: 0
    objectReference: {fileID: 0}
  - target: {fileID: 0}
    propertyPath: switchRatingsInt_4
    value: 0
    objectReference: {fileID: 0}
  - target: {fileID: 0}
    propertyPath: switchRatingsInt_5
    value: 0
    objectReference: {fileID: 0}
  - target: {fileID: 0}
    propertyPath: switchRatingsInt_6
    value: 0
    objectReference: {fileID: 0}
  - target: {fileID: 0}
    propertyPath: switchRatingsInt_7
    value: 0
    objectReference: {fileID: 0}
  - target: {fileID: 0}
    propertyPath: switchRatingsInt_8
    value: 0
    objectReference: {fileID: 0}
  - target: {fileID: 0}
    propertyPath: switchRatingsInt_9
    value: 0
    objectReference: {fileID: 0}
  - target: {fileID: 0}
    propertyPath: switchRatingsInt_10
    value: 0
    objectReference: {fileID: 0}
  - target: {fileID: 0}
    propertyPath: switchRatingsInt_11
    value: 0
    objectReference: {fileID: 0}
  - target: {fileID: 0}
    propertyPath: switchRatingsInt_12
    value: 0
    objectReference: {fileID: 0}
  - target: {fileID: 0}
    propertyPath: switchLocalCommunicationIds_0
    value: 
    objectReference: {fileID: 0}
  - target: {fileID: 0}
    propertyPath: switchLocalCommunicationIds_1
    value: 
    objectReference: {fileID: 0}
  - target: {fileID: 0}
    propertyPath: switchLocalCommunicationIds_2
    value: 
    objectReference: {fileID: 0}
  - target: {fileID: 0}
    propertyPath: switchLocalCommunicationIds_3
    value: 
    objectReference: {fileID: 0}
  - target: {fileID: 0}
    propertyPath: switchLocalCommunicationIds_4
    value: 
    objectReference: {fileID: 0}
  - target: {fileID: 0}
    propertyPath: switchLocalCommunicationIds_5
    value: 
    objectReference: {fileID: 0}
  - target: {fileID: 0}
    propertyPath: switchLocalCommunicationIds_6
    value: 
    objectReference: {fileID: 0}
  - target: {fileID: 0}
    propertyPath: switchLocalCommunicationIds_7
    value: 
    objectReference: {fileID: 0}
  - target: {fileID: 0}
    propertyPath: switchParentalControl
    value: 0
    objectReference: {fileID: 0}
  - target: {fileID: 0}
    propertyPath: switchAllowsScreenshot
    value: 1
    objectReference: {fileID: 0}
  - target: {fileID: 0}
    propertyPath: switchAllowsVideoCapturing
    value: 1
    objectReference: {fileID: 0}
  - target: {fileID: 0}
    propertyPath: switchAllowsRuntimeAddOnContentInstall
    value: 0
    objectReference: {fileID: 0}
  - target: {fileID: 0}
    propertyPath: switchDataLossConfirmation
    value: 0
    objectReference: {fileID: 0}
  - target: {fileID: 0}
    propertyPath: switchUserAccountLockEnabled
    value: 0
    objectReference: {fileID: 0}
  - target: {fileID: 0}
    propertyPath: switchSystemResourceMemory
    value: 16777216
    objectReference: {fileID: 0}
  - target: {fileID: 0}
    propertyPath: switchSupportedNpadStyles
    value: 6
    objectReference: {fileID: 0}
  - target: {fileID: 0}
    propertyPath: switchNativeFsCacheSize
    value: 32
    objectReference: {fileID: 0}
  - target: {fileID: 0}
    propertyPath: switchIsHoldTypeHorizontal
    value: 0
    objectReference: {fileID: 0}
  - target: {fileID: 0}
    propertyPath: switchSupportedNpadCount
    value: 8
    objectReference: {fileID: 0}
  - target: {fileID: 0}
    propertyPath: switchEnableTouchScreen
    value: 1
    objectReference: {fileID: 0}
  - target: {fileID: 0}
    propertyPath: switchSocketConfigEnabled
    value: 0
    objectReference: {fileID: 0}
  - target: {fileID: 0}
    propertyPath: switchTcpInitialSendBufferSize
    value: 32
    objectReference: {fileID: 0}
  - target: {fileID: 0}
    propertyPath: switchTcpInitialReceiveBufferSize
    value: 64
    objectReference: {fileID: 0}
  - target: {fileID: 0}
    propertyPath: switchTcpAutoSendBufferSizeMax
    value: 256
    objectReference: {fileID: 0}
  - target: {fileID: 0}
    propertyPath: switchTcpAutoReceiveBufferSizeMax
    value: 256
    objectReference: {fileID: 0}
  - target: {fileID: 0}
    propertyPath: switchUdpSendBufferSize
    value: 9
    objectReference: {fileID: 0}
  - target: {fileID: 0}
    propertyPath: switchUdpReceiveBufferSize
    value: 42
    objectReference: {fileID: 0}
  - target: {fileID: 0}
    propertyPath: switchSocketBufferEfficiency
    value: 4
    objectReference: {fileID: 0}
  - target: {fileID: 0}
    propertyPath: switchSocketInitializeEnabled
    value: 1
    objectReference: {fileID: 0}
  - target: {fileID: 0}
    propertyPath: switchNetworkInterfaceManagerInitializeEnabled
    value: 1
    objectReference: {fileID: 0}
  - target: {fileID: 0}
    propertyPath: switchPlayerConnectionEnabled
    value: 1
    objectReference: {fileID: 0}
  - target: {fileID: 0}
    propertyPath: switchUseNewStyleFilepaths
    value: 0
    objectReference: {fileID: 0}
  - target: {fileID: 0}
    propertyPath: switchUseLegacyFmodPriorities
    value: 1
    objectReference: {fileID: 0}
  - target: {fileID: 0}
    propertyPath: switchUseMicroSleepForYield
    value: 1
    objectReference: {fileID: 0}
  - target: {fileID: 0}
    propertyPath: switchEnableRamDiskSupport
    value: 0
    objectReference: {fileID: 0}
  - target: {fileID: 0}
    propertyPath: switchMicroSleepForYieldTime
    value: 25
    objectReference: {fileID: 0}
  - target: {fileID: 0}
    propertyPath: switchRamDiskSpaceSize
    value: 12
    objectReference: {fileID: 0}
  - target: {fileID: 0}
    propertyPath: ps4NPAgeRating
    value: 12
    objectReference: {fileID: 0}
  - target: {fileID: 0}
    propertyPath: ps4NPTitleSecret
    value: 
    objectReference: {fileID: 0}
  - target: {fileID: 0}
    propertyPath: ps4NPTrophyPackPath
    value: 
    objectReference: {fileID: 0}
  - target: {fileID: 0}
    propertyPath: ps4ParentalLevel
    value: 11
    objectReference: {fileID: 0}
  - target: {fileID: 0}
    propertyPath: ps4ContentID
    value: ED1633-NPXX51362_00-0000000000000000
    objectReference: {fileID: 0}
  - target: {fileID: 0}
    propertyPath: ps4Category
    value: 0
    objectReference: {fileID: 0}
  - target: {fileID: 0}
    propertyPath: ps4MasterVersion
    value: 01.00
    objectReference: {fileID: 0}
  - target: {fileID: 0}
    propertyPath: ps4AppVersion
    value: 01.00
    objectReference: {fileID: 0}
  - target: {fileID: 0}
    propertyPath: ps4AppType
    value: 0
    objectReference: {fileID: 0}
  - target: {fileID: 0}
    propertyPath: ps4ParamSfxPath
    value: 
    objectReference: {fileID: 0}
  - target: {fileID: 0}
    propertyPath: ps4VideoOutPixelFormat
    value: 0
    objectReference: {fileID: 0}
  - target: {fileID: 0}
    propertyPath: ps4VideoOutInitialWidth
    value: 1920
    objectReference: {fileID: 0}
  - target: {fileID: 0}
    propertyPath: ps4VideoOutBaseModeInitialWidth
    value: 1920
    objectReference: {fileID: 0}
  - target: {fileID: 0}
    propertyPath: ps4VideoOutReprojectionRate
    value: 60
    objectReference: {fileID: 0}
  - target: {fileID: 0}
    propertyPath: ps4PronunciationXMLPath
    value: 
    objectReference: {fileID: 0}
  - target: {fileID: 0}
    propertyPath: ps4PronunciationSIGPath
    value: 
    objectReference: {fileID: 0}
  - target: {fileID: 0}
    propertyPath: ps4BackgroundImagePath
    value: 
    objectReference: {fileID: 0}
  - target: {fileID: 0}
    propertyPath: ps4StartupImagePath
    value: 
    objectReference: {fileID: 0}
  - target: {fileID: 0}
    propertyPath: ps4StartupImagesFolder
    value: 
    objectReference: {fileID: 0}
  - target: {fileID: 0}
    propertyPath: ps4IconImagesFolder
    value: 
    objectReference: {fileID: 0}
  - target: {fileID: 0}
    propertyPath: ps4SaveDataImagePath
    value: 
    objectReference: {fileID: 0}
  - target: {fileID: 0}
    propertyPath: ps4SdkOverride
    value: 
    objectReference: {fileID: 0}
  - target: {fileID: 0}
    propertyPath: ps4BGMPath
    value: 
    objectReference: {fileID: 0}
  - target: {fileID: 0}
    propertyPath: ps4ShareFilePath
    value: 
    objectReference: {fileID: 0}
  - target: {fileID: 0}
    propertyPath: ps4ShareOverlayImagePath
    value: 
    objectReference: {fileID: 0}
  - target: {fileID: 0}
    propertyPath: ps4PrivacyGuardImagePath
    value: 
    objectReference: {fileID: 0}
  - target: {fileID: 0}
    propertyPath: ps4ExtraSceSysFile
    value: 
    objectReference: {fileID: 0}
  - target: {fileID: 0}
    propertyPath: ps4NPtitleDatPath
    value: 
    objectReference: {fileID: 0}
  - target: {fileID: 0}
    propertyPath: ps4RemotePlayKeyAssignment
    value: -1
    objectReference: {fileID: 0}
  - target: {fileID: 0}
    propertyPath: ps4RemotePlayKeyMappingDir
    value: 
    objectReference: {fileID: 0}
  - target: {fileID: 0}
    propertyPath: ps4PlayTogetherPlayerCount
    value: 0
    objectReference: {fileID: 0}
  - target: {fileID: 0}
    propertyPath: ps4EnterButtonAssignment
    value: 2
    objectReference: {fileID: 0}
  - target: {fileID: 0}
    propertyPath: ps4ApplicationParam1
    value: 0
    objectReference: {fileID: 0}
  - target: {fileID: 0}
    propertyPath: ps4ApplicationParam2
    value: 0
    objectReference: {fileID: 0}
  - target: {fileID: 0}
    propertyPath: ps4ApplicationParam3
    value: 0
    objectReference: {fileID: 0}
  - target: {fileID: 0}
    propertyPath: ps4ApplicationParam4
    value: 0
    objectReference: {fileID: 0}
  - target: {fileID: 0}
    propertyPath: ps4DownloadDataSize
    value: 0
    objectReference: {fileID: 0}
  - target: {fileID: 0}
    propertyPath: ps4GarlicHeapSize
    value: 2048
    objectReference: {fileID: 0}
  - target: {fileID: 0}
    propertyPath: ps4ProGarlicHeapSize
    value: 2560
    objectReference: {fileID: 0}
  - target: {fileID: 0}
    propertyPath: playerPrefsMaxSize
    value: 32768
    objectReference: {fileID: 0}
  - target: {fileID: 0}
    propertyPath: ps4Passcode
    value: frAQBc8Wsa1xVPfvJcrgRYwTiizs2trQ
    objectReference: {fileID: 0}
  - target: {fileID: 0}
    propertyPath: ps4pnSessions
    value: 1
    objectReference: {fileID: 0}
  - target: {fileID: 0}
    propertyPath: ps4pnPresence
    value: 1
    objectReference: {fileID: 0}
  - target: {fileID: 0}
    propertyPath: ps4pnFriends
    value: 1
    objectReference: {fileID: 0}
  - target: {fileID: 0}
    propertyPath: ps4pnGameCustomData
    value: 1
    objectReference: {fileID: 0}
  - target: {fileID: 0}
    propertyPath: playerPrefsSupport
    value: 0
    objectReference: {fileID: 0}
  - target: {fileID: 0}
    propertyPath: enableApplicationExit
    value: 0
    objectReference: {fileID: 0}
  - target: {fileID: 0}
    propertyPath: resetTempFolder
    value: 1
    objectReference: {fileID: 0}
  - target: {fileID: 0}
    propertyPath: restrictedAudioUsageRights
    value: 0
    objectReference: {fileID: 0}
  - target: {fileID: 0}
    propertyPath: ps4UseResolutionFallback
    value: 0
    objectReference: {fileID: 0}
  - target: {fileID: 0}
    propertyPath: ps4ReprojectionSupport
    value: 0
    objectReference: {fileID: 0}
  - target: {fileID: 0}
    propertyPath: ps4UseAudio3dBackend
    value: 0
    objectReference: {fileID: 0}
  - target: {fileID: 0}
    propertyPath: ps4UseLowGarlicFragmentationMode
    value: 1
    objectReference: {fileID: 0}
  - target: {fileID: 0}
    propertyPath: ps4SocialScreenEnabled
    value: 0
    objectReference: {fileID: 0}
  - target: {fileID: 0}
    propertyPath: ps4ScriptOptimizationLevel
    value: 2
    objectReference: {fileID: 0}
  - target: {fileID: 0}
    propertyPath: ps4Audio3dVirtualSpeakerCount
    value: 14
    objectReference: {fileID: 0}
  - target: {fileID: 0}
    propertyPath: ps4attribCpuUsage
    value: 0
    objectReference: {fileID: 0}
  - target: {fileID: 0}
    propertyPath: ps4PatchPkgPath
    value: 
    objectReference: {fileID: 0}
  - target: {fileID: 0}
    propertyPath: ps4PatchLatestPkgPath
    value: 
    objectReference: {fileID: 0}
  - target: {fileID: 0}
    propertyPath: ps4PatchChangeinfoPath
    value: 
    objectReference: {fileID: 0}
  - target: {fileID: 0}
    propertyPath: ps4PatchDayOne
    value: 0
    objectReference: {fileID: 0}
  - target: {fileID: 0}
    propertyPath: ps4attribUserManagement
    value: 0
    objectReference: {fileID: 0}
  - target: {fileID: 0}
    propertyPath: ps4attribMoveSupport
    value: 0
    objectReference: {fileID: 0}
  - target: {fileID: 0}
    propertyPath: ps4attrib3DSupport
    value: 0
    objectReference: {fileID: 0}
  - target: {fileID: 0}
    propertyPath: ps4attribShareSupport
    value: 0
    objectReference: {fileID: 0}
  - target: {fileID: 0}
    propertyPath: ps4attribExclusiveVR
    value: 0
    objectReference: {fileID: 0}
  - target: {fileID: 0}
    propertyPath: ps4disableAutoHideSplash
    value: 0
    objectReference: {fileID: 0}
  - target: {fileID: 0}
    propertyPath: ps4videoRecordingFeaturesUsed
    value: 0
    objectReference: {fileID: 0}
  - target: {fileID: 0}
    propertyPath: ps4contentSearchFeaturesUsed
    value: 0
    objectReference: {fileID: 0}
  - target: {fileID: 0}
    propertyPath: ps4CompatibilityPS5
    value: 0
    objectReference: {fileID: 0}
  - target: {fileID: 0}
    propertyPath: ps4AllowPS5Detection
    value: 0
    objectReference: {fileID: 0}
  - target: {fileID: 0}
    propertyPath: ps4GPU800MHz
    value: 1
    objectReference: {fileID: 0}
  - target: {fileID: 0}
    propertyPath: ps4attribEyeToEyeDistanceSettingVR
    value: 0
    objectReference: {fileID: 0}
  - target: {fileID: 0}
    propertyPath: ps4IncludedModules.Array.size
    value: 0
    objectReference: {fileID: 0}
  - target: {fileID: 0}
    propertyPath: ps4attribVROutputEnabled
    value: 0
    objectReference: {fileID: 0}
  - target: {fileID: 0}
    propertyPath: monoEnv
    value: 
    objectReference: {fileID: 0}
  - target: {fileID: 0}
    propertyPath: splashScreenBackgroundSourceLandscape
    value: 
    objectReference: {fileID: 0}
  - target: {fileID: 0}
    propertyPath: splashScreenBackgroundSourcePortrait
    value: 
    objectReference: {fileID: 0}
  - target: {fileID: 0}
    propertyPath: blurSplashScreenBackground
    value: 1
    objectReference: {fileID: 0}
  - target: {fileID: 0}
    propertyPath: spritePackerPolicy
    value: 
    objectReference: {fileID: 0}
  - target: {fileID: 0}
    propertyPath: webGLMemorySize
    value: 32
    objectReference: {fileID: 0}
  - target: {fileID: 0}
    propertyPath: webGLExceptionSupport
    value: 1
    objectReference: {fileID: 0}
  - target: {fileID: 0}
    propertyPath: webGLNameFilesAsHashes
    value: 0
    objectReference: {fileID: 0}
  - target: {fileID: 0}
    propertyPath: webGLDataCaching
    value: 1
    objectReference: {fileID: 0}
  - target: {fileID: 0}
    propertyPath: webGLDebugSymbols
    value: 0
    objectReference: {fileID: 0}
  - target: {fileID: 0}
    propertyPath: webGLEmscriptenArgs
    value: 
    objectReference: {fileID: 0}
  - target: {fileID: 0}
    propertyPath: webGLModulesDirectory
    value: 
    objectReference: {fileID: 0}
  - target: {fileID: 0}
    propertyPath: webGLTemplate
    value: APPLICATION:Default
    objectReference: {fileID: 0}
  - target: {fileID: 0}
    propertyPath: webGLAnalyzeBuildSize
    value: 0
    objectReference: {fileID: 0}
  - target: {fileID: 0}
    propertyPath: webGLUseEmbeddedResources
    value: 0
    objectReference: {fileID: 0}
  - target: {fileID: 0}
    propertyPath: webGLCompressionFormat
    value: 0
    objectReference: {fileID: 0}
  - target: {fileID: 0}
    propertyPath: webGLWasmArithmeticExceptions
    value: 0
    objectReference: {fileID: 0}
  - target: {fileID: 0}
    propertyPath: webGLLinkerTarget
    value: 1
    objectReference: {fileID: 0}
  - target: {fileID: 0}
    propertyPath: webGLThreadsSupport
    value: 0
    objectReference: {fileID: 0}
  - target: {fileID: 0}
    propertyPath: webGLDecompressionFallback
    value: 0
    objectReference: {fileID: 0}
  - target: {fileID: 0}
    propertyPath: webGLPowerPreference
    value: 2
    objectReference: {fileID: 0}
  - target: {fileID: 0}
    propertyPath: scriptingDefineSymbols.Array.size
    value: 0
    objectReference: {fileID: 0}
  - target: {fileID: 0}
    propertyPath: additionalCompilerArguments.Array.size
    value: 0
    objectReference: {fileID: 0}
  - target: {fileID: 0}
    propertyPath: platformArchitecture.Array.size
    value: 0
    objectReference: {fileID: 0}
  - target: {fileID: 0}
    propertyPath: scriptingBackend.Array.size
    value: 0
    objectReference: {fileID: 0}
  - target: {fileID: 0}
    propertyPath: il2cppCompilerConfiguration.Array.size
    value: 0
    objectReference: {fileID: 0}
  - target: {fileID: 0}
    propertyPath: managedStrippingLevel.Array.size
    value: 0
    objectReference: {fileID: 0}
  - target: {fileID: 0}
    propertyPath: incrementalIl2cppBuild.Array.size
    value: 0
    objectReference: {fileID: 0}
  - target: {fileID: 0}
    propertyPath: suppressCommonWarnings
    value: 1
    objectReference: {fileID: 0}
  - target: {fileID: 0}
    propertyPath: allowUnsafeCode
    value: 0
    objectReference: {fileID: 0}
  - target: {fileID: 0}
    propertyPath: useDeterministicCompilation
    value: 1
    objectReference: {fileID: 0}
  - target: {fileID: 0}
    propertyPath: enableRoslynAnalyzers
    value: 1
    objectReference: {fileID: 0}
  - target: {fileID: 0}
    propertyPath: selectedPlatform
    value: 0
    objectReference: {fileID: 0}
  - target: {fileID: 0}
    propertyPath: additionalIl2CppArgs
    value: 
    objectReference: {fileID: 0}
  - target: {fileID: 0}
    propertyPath: scriptingRuntimeVersion
    value: 1
    objectReference: {fileID: 0}
  - target: {fileID: 0}
    propertyPath: gcIncremental
    value: 0
    objectReference: {fileID: 0}
  - target: {fileID: 0}
    propertyPath: assemblyVersionValidation
    value: 1
    objectReference: {fileID: 0}
  - target: {fileID: 0}
    propertyPath: gcWBarrierValidation
    value: 0
    objectReference: {fileID: 0}
  - target: {fileID: 0}
    propertyPath: apiCompatibilityLevelPerPlatform.Array.size
    value: 0
    objectReference: {fileID: 0}
  - target: {fileID: 0}
    propertyPath: m_RenderingPath
    value: 1
    objectReference: {fileID: 0}
  - target: {fileID: 0}
    propertyPath: m_MobileRenderingPath
    value: 1
    objectReference: {fileID: 0}
  - target: {fileID: 0}
    propertyPath: metroPackageName
    value: Uni-Run
    objectReference: {fileID: 0}
  - target: {fileID: 0}
    propertyPath: metroPackageVersion
    value: 
    objectReference: {fileID: 0}
  - target: {fileID: 0}
    propertyPath: metroCertificatePath
    value: 
    objectReference: {fileID: 0}
  - target: {fileID: 0}
    propertyPath: metroCertificatePassword
    value: 
    objectReference: {fileID: 0}
  - target: {fileID: 0}
    propertyPath: metroCertificateSubject
    value: 
    objectReference: {fileID: 0}
  - target: {fileID: 0}
    propertyPath: metroCertificateIssuer
    value: 
    objectReference: {fileID: 0}
  - target: {fileID: 0}
    propertyPath: metroCertificateNotAfter
    value: 0
    objectReference: {fileID: 0}
  - target: {fileID: 0}
    propertyPath: metroApplicationDescription
    value: Uni-Run
    objectReference: {fileID: 0}
  - target: {fileID: 0}
    propertyPath: wsaImages.Array.size
    value: 0
    objectReference: {fileID: 0}
  - target: {fileID: 0}
    propertyPath: metroTileShortName
    value: 
    objectReference: {fileID: 0}
  - target: {fileID: 0}
    propertyPath: metroTileShowName
    value: 0
    objectReference: {fileID: 0}
  - target: {fileID: 0}
    propertyPath: metroMediumTileShowName
    value: 0
    objectReference: {fileID: 0}
  - target: {fileID: 0}
    propertyPath: metroLargeTileShowName
    value: 0
    objectReference: {fileID: 0}
  - target: {fileID: 0}
    propertyPath: metroWideTileShowName
    value: 0
    objectReference: {fileID: 0}
  - target: {fileID: 0}
    propertyPath: metroSupportStreamingInstall
    value: 0
    objectReference: {fileID: 0}
  - target: {fileID: 0}
    propertyPath: metroLastRequiredScene
    value: 0
    objectReference: {fileID: 0}
  - target: {fileID: 0}
    propertyPath: metroDefaultTileSize
    value: 1
    objectReference: {fileID: 0}
  - target: {fileID: 0}
    propertyPath: metroTileForegroundText
    value: 2
    objectReference: {fileID: 0}
  - target: {fileID: 0}
    propertyPath: metroTileBackgroundColor.r
    value: 0.13333334
    objectReference: {fileID: 0}
  - target: {fileID: 0}
    propertyPath: metroTileBackgroundColor.g
    value: 0.17254902
    objectReference: {fileID: 0}
  - target: {fileID: 0}
    propertyPath: metroTileBackgroundColor.b
    value: 0.21568628
    objectReference: {fileID: 0}
  - target: {fileID: 0}
    propertyPath: metroTileBackgroundColor.a
    value: 0
    objectReference: {fileID: 0}
  - target: {fileID: 0}
    propertyPath: metroSplashScreenBackgroundColor.r
    value: 0.12941177
    objectReference: {fileID: 0}
  - target: {fileID: 0}
    propertyPath: metroSplashScreenBackgroundColor.g
    value: 0.17254902
    objectReference: {fileID: 0}
  - target: {fileID: 0}
    propertyPath: metroSplashScreenBackgroundColor.b
    value: 0.21568628
    objectReference: {fileID: 0}
  - target: {fileID: 0}
    propertyPath: metroSplashScreenBackgroundColor.a
    value: 1
    objectReference: {fileID: 0}
  - target: {fileID: 0}
    propertyPath: metroSplashScreenUseBackgroundColor
    value: 0
    objectReference: {fileID: 0}
  - target: {fileID: 0}
    propertyPath: platformCapabilities.Array.size
    value: 0
    objectReference: {fileID: 0}
  - target: {fileID: 0}
    propertyPath: metroTargetDeviceFamilies.Array.size
    value: 0
    objectReference: {fileID: 0}
  - target: {fileID: 0}
    propertyPath: metroFTAName
    value: 
    objectReference: {fileID: 0}
  - target: {fileID: 0}
    propertyPath: metroFTAFileTypes.Array.size
    value: 0
    objectReference: {fileID: 0}
  - target: {fileID: 0}
    propertyPath: metroProtocolName
    value: 
    objectReference: {fileID: 0}
  - target: {fileID: 0}
    propertyPath: vcxProjDefaultLanguage
    value: 
    objectReference: {fileID: 0}
  - target: {fileID: 0}
    propertyPath: XboxOneProductId
    value: 
    objectReference: {fileID: 0}
  - target: {fileID: 0}
    propertyPath: XboxOneUpdateKey
    value: 
    objectReference: {fileID: 0}
  - target: {fileID: 0}
    propertyPath: XboxOneSandboxId
    value: 
    objectReference: {fileID: 0}
  - target: {fileID: 0}
    propertyPath: XboxOneContentId
    value: 
    objectReference: {fileID: 0}
  - target: {fileID: 0}
    propertyPath: XboxOneTitleId
    value: 
    objectReference: {fileID: 0}
  - target: {fileID: 0}
    propertyPath: XboxOneSCId
    value: 
    objectReference: {fileID: 0}
  - target: {fileID: 0}
    propertyPath: XboxOneGameOsOverridePath
    value: 
    objectReference: {fileID: 0}
  - target: {fileID: 0}
    propertyPath: XboxOnePackagingOverridePath
    value: 
    objectReference: {fileID: 0}
  - target: {fileID: 0}
    propertyPath: XboxOneAppManifestOverridePath
    value: 
    objectReference: {fileID: 0}
  - target: {fileID: 0}
    propertyPath: XboxOneVersion
    value: 1.0.0.0
    objectReference: {fileID: 0}
  - target: {fileID: 0}
    propertyPath: XboxOnePackageEncryption
    value: 0
    objectReference: {fileID: 0}
  - target: {fileID: 0}
    propertyPath: XboxOnePackageUpdateGranularity
    value: 2
    objectReference: {fileID: 0}
  - target: {fileID: 0}
    propertyPath: XboxOneDescription
    value: 
    objectReference: {fileID: 0}
  - target: {fileID: 0}
    propertyPath: XboxOneLanguage.Array.size
    value: 1
    objectReference: {fileID: 0}
  - target: {fileID: 0}
    propertyPath: XboxOneLanguage.Array.data[0]
    value: enus
    objectReference: {fileID: 0}
  - target: {fileID: 0}
    propertyPath: XboxOneCapability.Array.size
    value: 0
    objectReference: {fileID: 0}
  - target: {fileID: 0}
    propertyPath: XboxOneGameRating.Array.size
    value: 0
    objectReference: {fileID: 0}
  - target: {fileID: 0}
    propertyPath: XboxOneIsContentPackage
    value: 0
    objectReference: {fileID: 0}
  - target: {fileID: 0}
    propertyPath: XboxOneEnhancedXboxCompatibilityMode
    value: 0
    objectReference: {fileID: 0}
  - target: {fileID: 0}
    propertyPath: XboxOneEnableGPUVariability
    value: 1
    objectReference: {fileID: 0}
  - target: {fileID: 0}
    propertyPath: XboxOneSockets.Array.size
    value: 0
    objectReference: {fileID: 0}
  - target: {fileID: 0}
    propertyPath: XboxOneSplashScreen
    value: 
    objectReference: {fileID: 0}
  - target: {fileID: 0}
    propertyPath: XboxOneAllowedProductIds.Array.size
    value: 0
    objectReference: {fileID: 0}
  - target: {fileID: 0}
    propertyPath: XboxOnePersistentLocalStorageSize
    value: 0
    objectReference: {fileID: 0}
  - target: {fileID: 0}
    propertyPath: XboxOneXTitleMemory
    value: 8
    objectReference: {fileID: 0}
  - target: {fileID: 0}
    propertyPath: XboxOneOverrideIdentityName
    value: 
    objectReference: {fileID: 0}
  - target: {fileID: 0}
    propertyPath: XboxOneOverrideIdentityPublisher
    value: 
    objectReference: {fileID: 0}
  - target: {fileID: 0}
    propertyPath: cloudServicesEnabled.Array.size
    value: 0
    objectReference: {fileID: 0}
  - target: {fileID: 0}
    propertyPath: luminIcon.m_Name
    value: 
    objectReference: {fileID: 0}
  - target: {fileID: 0}
    propertyPath: luminIcon.m_ModelFolderPath
    value: 
    objectReference: {fileID: 0}
  - target: {fileID: 0}
    propertyPath: luminIcon.m_PortalFolderPath
    value: 
    objectReference: {fileID: 0}
  - target: {fileID: 0}
    propertyPath: luminCert.m_CertPath
    value: 
    objectReference: {fileID: 0}
  - target: {fileID: 0}
    propertyPath: luminCert.m_SignPackage
    value: 1
    objectReference: {fileID: 0}
  - target: {fileID: 0}
    propertyPath: luminIsChannelApp
    value: 0
    objectReference: {fileID: 0}
  - target: {fileID: 0}
    propertyPath: luminVersion.m_VersionCode
    value: 1
    objectReference: {fileID: 0}
  - target: {fileID: 0}
    propertyPath: luminVersion.m_VersionName
    value: 
    objectReference: {fileID: 0}
  - target: {fileID: 0}
    propertyPath: apiCompatibilityLevel
    value: 6
    objectReference: {fileID: 0}
  - target: {fileID: 0}
    propertyPath: activeInputHandler
    value: 0
    objectReference: {fileID: 0}
  - target: {fileID: 0}
    propertyPath: windowsGamepadBackendHint
    value: 0
    objectReference: {fileID: 0}
  - target: {fileID: 0}
    propertyPath: cloudProjectId
    value: 
    objectReference: {fileID: 0}
  - target: {fileID: 0}
    propertyPath: framebufferDepthMemorylessMode
    value: 0
    objectReference: {fileID: 0}
  - target: {fileID: 0}
    propertyPath: qualitySettingsNames.Array.size
    value: 0
    objectReference: {fileID: 0}
  - target: {fileID: 0}
    propertyPath: projectName
    value: Template_2D
    objectReference: {fileID: 0}
  - target: {fileID: 0}
    propertyPath: organizationId
    value: 
    objectReference: {fileID: 0}
  - target: {fileID: 0}
    propertyPath: cloudEnabled
    value: 0
    objectReference: {fileID: 0}
  - target: {fileID: 0}
    propertyPath: legacyClampBlendShapeWeights
    value: 0
    objectReference: {fileID: 0}
  - target: {fileID: 0}
    propertyPath: playerDataPath
    value: 
    objectReference: {fileID: 0}
  - target: {fileID: 0}
    propertyPath: forceSRGBBlit
    value: 1
    objectReference: {fileID: 0}
  - target: {fileID: 0}
    propertyPath: virtualTexturingSupportEnabled
    value: 0
    objectReference: {fileID: 0}
  m_ExcludedProperties: []
